%YAML 1.1
%TAG !u! tag:unity3d.com,2011:
--- !u!114 &11400000
MonoBehaviour:
  m_ObjectHideFlags: 0
  m_CorrespondingSourceObject: {fileID: 0}
  m_PrefabInstance: {fileID: 0}
  m_PrefabAsset: {fileID: 0}
  m_GameObject: {fileID: 0}
  m_Enabled: 1
  m_EditorHideFlags: 0
  m_Script: {fileID: 11500000, guid: d40c81d900ffd884aafdaf4b290a268c, type: 3}
  m_Name: ShipTileset
  m_EditorClassIdentifier: 
  tiles:
  - {fileID: 7406018937134260133, guid: 69d097f0f230a0b4eb25d9acdfb04642, type: 3}
  - {fileID: 8580698711436765521, guid: ad2be387ccec57842930d8ef658d0a42, type: 3}
  - {fileID: 4092086167366565830, guid: f95f8eccf73cbd9419f734de6a88ea66, type: 3}
  - {fileID: 5003409975055868526, guid: b19955055a1844946b744a43c376d977, type: 3}
  - {fileID: 8348301461938736036, guid: 82ca71c6aa39dc04899d63e37693fbdd, type: 3}
  - {fileID: 1223479244501750184, guid: 76c340f9710d7784095318f457330892, type: 3}
  - {fileID: 2570171013648319170, guid: 6dd8d834f33d81f4b9b5480b265a1475, type: 3}
  - {fileID: 5270197617649084311, guid: 1cf6032eb701efa4085106d56f6bacaa, type: 3}
  - {fileID: 7510059709383712186, guid: 2bf14692d3faf28448447510ce1e2e36, type: 3}
  - {fileID: 5930761226077026928, guid: 19b88df391ac10b47b143b3c3a942cba, type: 3}
  - {fileID: 491987504522253620, guid: 02455bb6467de8242a901286b7290d46, type: 3}
  - {fileID: 7903935401843733957, guid: c9de0abc043a20146973d22f425b34a8, type: 3}
  - {fileID: 7477996674400598353, guid: 5504ebb8754504f43b24665fc31dda45, type: 3}
